Landscape Metrics for Categorical Map Patterns • landscapemetrics | Landscape Metrics for Categorical Map Patterns
…
# calculate for example the Euclidean nearest-neighbor distance on patch level
lsm_p_enn(landscape)
#> # A tibble: 27 × 6
#>    layer level class    id metric value
#>    <int> <chr> <int> <int> <chr>  <dbl>
#>  1     1 patch     1     1 enn     7   
#>  2     1 patch     1     2 enn     4   
#>  3     1 patch     1     3 enn     2.83
#>  4     1 patch     1     4 enn     2   
#>  5     1 patch     1     5 enn     2   
#>  6     1 patch     1     6 enn     2.83
#>  7     1 patch     1     7 enn     4.12
#>  8     1 patch     1     8 enn     4.12
#>  9     1 patch     1     9 enn     4.24
#> 10     1 patch     2    10 enn     4.47
#> # … with 17 more rows
…
There is also a wrapper around every metric in the package to quickly calculate a bunch of metrics:

# calculate all metrics on patch level
calculate_lsm(landscape, level = "patch")
#> Warning: Please use 'check_landscape()' to ensure the input data is valid.
#> # A tibble: 324 × 6
#>    layer level class    id metric  value
#>    <int> <chr> <int> <int> <chr>   <dbl>
#>  1     1 patch     1     1 area   0.0001
#>  2     1 patch     1     2 area   0.0005
#>  3     1 patch     1     3 area   0.0148
#>  4     1 patch     1     4 area   0.0001
#>  5     1 patch     1     5 area   0.0001
#>  6     1 patch     1     6 area   0.0014
#>  7     1 patch     1     7 area   0.0003
#>  8     1 patch     1     8 area   0.0005
#>  9     1 patch     1     9 area   0.0001
#> 10     1 patch     2    10 area   0.0035
#> # … with 314 more rows
…
