…
## plot landscape
landscapetools::util_plot(landscape)
```

<img src="man/figures/README-unnamed-chunk-1-1.png" width="100%" />

``` r

# Calculate Euclidean Nearest-Neighbor Distance on patch level
landscape %>% 
  lsm_p_enn()
#> # A tibble: 27 x 6
#>    layer level class    id metric                                    value
#>    <int> <chr> <int> <int> <chr>                                     <dbl>
#>  1     1 patch     1     1 euclidean nearest neighbor distance dist…  7   
#>  2     1 patch     1     2 euclidean nearest neighbor distance dist…  4   
#>  3     1 patch     1     3 euclidean nearest neighbor distance dist…  2.83
#>  4     1 patch     1     4 euclidean nearest neighbor distance dist…  2   
#>  5     1 patch     1     5 euclidean nearest neighbor distance dist…  2   
#>  6     1 patch     1     6 euclidean nearest neighbor distance dist…  2.83
#>  7     1 patch     1     7 euclidean nearest neighbor distance dist…  4.12
#>  8     1 patch     1     8 euclidean nearest neighbor distance dist…  4.12
#>  9     1 patch     1     9 euclidean nearest neighbor distance dist…  4.24
#> 10     1 patch     2    10 euclidean nearest neighbor distance dist…  4.47
#> # ... with 17 more rows
```
…
