README.utf8.md
…
## class       : RasterLayer 
## dimensions  : 30, 30, 900  (nrow, ncol, ncell)
## resolution  : 1, 1  (x, y)
## extent      : 0, 30, 0, 30  (xmin, xmax, ymin, ymax)
## coord. ref. : NA 
## data source : in memory
## names       : clumps 
## values      : 1, 3  (min, max)

# Calculate for example the euclidean nearest-neighbor distance on patch level
lsm_p_enn(landscape)

## # A tibble: 27 x 6
##    layer level class    id metric value
##    <int> <chr> <int> <int> <chr>  <dbl>
##  1     1 patch     1     1 enn     7   
##  2     1 patch     1     2 enn     4   
##  3     1 patch     1     3 enn     2.83
##  4     1 patch     1     4 enn     2   
##  5     1 patch     1     5 enn     2   
##  6     1 patch     1     6 enn     2.83
##  7     1 patch     1     7 enn     4.12
##  8     1 patch     1     8 enn     4.12
##  9     1 patch     1     9 enn     4.24
## 10     1 patch     2    10 enn     4.47
## # ... with 17 more rows
…
