extract_lsm — extract_lsm • landscapemetrics
…
    See also

    calculate_lsm

    Examples

landscape <- terra::rast(landscapemetrics::landscape)

points <- matrix(c(10, 5, 25, 15, 5, 25), ncol = 2, byrow = TRUE)
extract_lsm(landscape, y = points)
#> Warning: Please use 'check_landscape()' to ensure the input data is valid.
#> # A tibble: 36 × 7
#>    layer level class    id metric   value extract_id
#>    <int> <chr> <int> <int> <chr>    <dbl>      <int>
#>  1     1 patch     3    24 area    0.0113          1
#>  2     1 patch     3    24 cai    40.7             1
#>  3     1 patch     3    24 circle  0.747           1
#>  4     1 patch     3    24 contig  0.752           1
#>  5     1 patch     3    24 core    0.0046          1
#>  6     1 patch     3    24 enn     2               1
#>  7     1 patch     3    24 frac    1.36            1
#>  8     1 patch     3    24 gyrate  5.79            1
#>  9     1 patch     3    24 ncore   3               1
#> 10     1 patch     3    24 para    0.885           1
#> # ℹ 26 more rows
…
