get_circumscribingcircle — get_circumscribingcircle • landscapemetrics | Landscape Metrics for Categorical Map Patterns
…
    The diameter of the smallest circumscribing circle around a patch in the landscape
is based on the maximum distance between the corners of each cell. This ensures that all
cells of the patch are included in the patch.

    References

    Based on C++ code from Project Nayuki (https://www.nayuki.io/page/smallest-enclosing-circle).

    Examples

# get circle around each patch
get_circumscribingcircle(landscape)

#> # A tibble: 27 x 7
#>    layer level class    id value center_x center_y
#>    <int> <chr> <int> <int> <dbl>    <dbl>    <dbl>
#>  1     1 patch     1     1  1.41      0.5     29.5
#>  2     1 patch     1     2  4.12      0.5     21  
#>  3     1 patch     1     3 29.3      13.2     19.2
#>  4     1 patch     1     4  1.41      0.5      2.5
#>  5     1 patch     1     5  1.41      0.5      0.5
#>  6     1 patch     1     6  6.32     17        8  
#>  7     1 patch     1     7  3.16     20.5      0.5
#>  8     1 patch     1     8  3.61     26        2.5
#>  9     1 patch     1     9  1.41     29.5      6.5
#> 10     1 patch     2    10 10.3       3.5     25.5
#> # … with 17 more rows
…
