get_enn_patch — get_enn_patch • landscapemetrics
…
    Details

    Calculate Euclidean Nearest-Neighbor Distance for each patch in each class

    Examples

landscape <- terra::rast(landscapemetrics::landscape)
landscape_mat <- terra::as.matrix(landscape, wide = TRUE)
classes <- landscapemetrics:::get_unique_values_int(landscape_mat)
class_patches <- get_class_patches(landscape_mat, classes, directions = 8)
points <- get_points(landscape_mat, terra::res(landscape))
enns <- get_enn_patch(classes, class_patches, points, terra::res(landscape))
enns
#> # A tibble: 28 × 2
#>    class value
#>    <int> <dbl>
#>  1     1  7   
#>  2     1  4   
#>  3     1  2   
#>  4     1  6.32
#>  5     1  5   
#>  6     1  2.24
#>  7     1  2   
#>  8     1  4.12
#>  9     1  4.12
#> 10     2  4.47
#> # ℹ 18 more rows
…
