List landscape metrics — list_lsm • landscapemetrics | Landscape Metrics for Categorical Map Patterns
…
#>  4 contag   connectance                   aggregation me… landsca… lsm_l_contag 
#>  5 division division index                aggregation me… landsca… lsm_l_divisi…
#>  6 enn_cv   euclidean nearest neighbor d… aggregation me… landsca… lsm_l_enn_cv 
#>  7 enn_mn   euclidean nearest neighbor d… aggregation me… landsca… lsm_l_enn_mn 
#>  8 enn_sd   euclidean nearest neighbor d… aggregation me… landsca… lsm_l_enn_sd 
#>  9 iji      interspersion and juxtaposit… aggregation me… landsca… lsm_l_iji    
#> 10 lsi      landscape shape index         aggregation me… landsca… lsm_l_lsi    
#> 11 mesh     effective mesh size           aggregation me… landsca… lsm_l_mesh   
#> 12 np       number of patches             aggregation me… landsca… lsm_l_np     
#> 13 pd       patch density                 aggregation me… landsca… lsm_l_pd     
#> 14 pladj    percentage of like adjacenci… aggregation me… landsca… lsm_l_pladj  
#> 15 split    splitting index               aggregation me… landsca… lsm_l_split  
list_lsm(level = "-patch", type = "area and edge metric")

#> # A tibble: 21 x 5
#>    metric    name                    type                 level function_name  
#>    <chr>     <chr>                   <chr>                <chr> <chr>          
#>  1 area_cv   patch area              area and edge metric class lsm_c_area_cv  
#>  2 area_mn   patch area              area and edge metric class lsm_c_area_mn  
#>  3 area_sd   patch area              area and edge metric class lsm_c_area_sd  
#>  4 ca        total (class) area      area and edge metric class lsm_c_ca       
#>  5 ed        edge density            area and edge metric class lsm_c_ed       
#>  6 gyrate_cv radius of gyration      area and edge metric class lsm_c_gyrate_cv
#>  7 gyrate_mn radius of gyration      area and edge metric class lsm_c_gyrate_mn
#>  8 gyrate_sd radius of gyration      area and edge metric class lsm_c_gyrate_sd
#>  9 lpi       largest patch index     area and edge metric class lsm_c_lpi      
#> 10 pland     percentage of landscape area and edge metric class lsm_c_pland    
#> # … with 11 more rows
…
