NCORE (patch level) — lsm_p_ncore • landscapemetrics | Landscape Metrics for Categorical Map Patterns
…
    lsm_c_dcore_mn,
lsm_c_dcore_sd,
lsm_c_dcore_cv,
lsm_c_ndca, 

lsm_l_dcore_mn,
lsm_l_dcore_sd,
lsm_l_dcore_cv,
lsm_l_ndca

    Examples

lsm_p_ncore(landscape)

#> # A tibble: 27 x 6
#>    layer level class    id metric value
#>    <int> <chr> <int> <int> <chr>  <dbl>
#>  1     1 patch     1     1 ncore      0
#>  2     1 patch     1     2 ncore      0
#>  3     1 patch     1     3 ncore      3
#>  4     1 patch     1     4 ncore      0
#>  5     1 patch     1     5 ncore      0
#>  6     1 patch     1     6 ncore      2
#>  7     1 patch     1     7 ncore      0
#>  8     1 patch     1     8 ncore      0
#>  9     1 patch     1     9 ncore      0
#> 10     1 patch     2    10 ncore      1
#> # … with 17 more rows
…
