scale_sample — scale_sample • landscapemetrics
…
    list_lsm 
calculate_lsm 
sample_lsm 
construct_buffer

    Examples

my_points = matrix(c(1265000, 1250000, 1255000, 1257000),
                  ncol = 2, byrow = TRUE)

scale_sample(landscape = augusta_nlcd, y = my_points,
size = 500, max_size = 5000, what = c("lsm_l_ent", "lsm_l_mutinf"))
#> Warning: The 'perecentage_inside' is below 90% for at least one buffer.
#> # A tibble: 40 × 9
#>    layer level     class    id metric value  size plot_id percentage_inside
#>    <int> <chr>     <int> <int> <chr>  <dbl> <dbl>   <int>             <dbl>
#>  1     1 landscape    NA    NA ent     2.27   500       1              98.0
#>  2     1 landscape    NA    NA ent     2.70  1000       1             101. 
#>  3     1 landscape    NA    NA ent     2.70  1500       1             100  
#>  4     1 landscape    NA    NA ent     2.82  2000       1              99.5
#>  5     1 landscape    NA    NA ent     2.93  2500       1             100. 
#>  6     1 landscape    NA    NA ent     2.97  3000       1             100  
#>  7     1 landscape    NA    NA ent     2.97  3500       1              95.4
#>  8     1 landscape    NA    NA ent     2.94  4000       1              90.1
#>  9     1 landscape    NA    NA ent     2.94  4500       1              85.3
#> 10     1 landscape    NA    NA ent     2.95  5000       1              81.8
#> # … with 30 more rows
…
