Sampling around points of interest • landscapemetrics | Landscape Metrics for Categorical Map Patterns
…
sample_lsm(landscape, y = points, size = 10, 
           level = "landscape", type = "diversity metric", 
           classes_max = 3,
           verbose = FALSE)
## # A tibble: 27 × 8
##    layer level     class    id metric     value plot_id percentage_inside
##    <int> <chr>     <int> <int> <chr>      <dbl>   <int>             <dbl>
##  1     1 landscape    NA    NA msidi      0.954       1                75
##  2     1 landscape    NA    NA msiei      0.868       1                75
##  3     1 landscape    NA    NA pr         3           1                75
##  4     1 landscape    NA    NA prd    10000           1                75
##  5     1 landscape    NA    NA rpr      100           1                75
##  6     1 landscape    NA    NA shdi       1.02        1                75
##  7     1 landscape    NA    NA shei       0.932       1                75
##  8     1 landscape    NA    NA sidi       0.615       1                75
##  9     1 landscape    NA    NA siei       0.922       1                75
## 10     1 landscape    NA    NA msidi      0.969       2                75
## # … with 17 more rows
…
