Get Started with landscapemetrics • landscapemetrics | Landscape Metrics for Categorical Map Patterns
…
1
landscape
NA
NA
landscape metric
x

# Import raster
landscape_raster <- landscapemetrics::landscape
# for local file: raster("pathtoyourraster/raster.asc")
# ... or any other raster file type, geotiff, ...

# Calculate e.g. perimeter of all patches
lsm_p_perim(landscape_raster)
#> # A tibble: 27 x 6
#>    layer level class    id metric value
#>    <int> <chr> <int> <int> <chr>  <dbl>
#>  1     1 patch     1     1 perim      4
#>  2     1 patch     1     2 perim     12
#>  3     1 patch     1     3 perim    130
#>  4     1 patch     1     4 perim      4
#>  5     1 patch     1     5 perim      4
#>  6     1 patch     1     6 perim     20
#>  7     1 patch     1     7 perim      8
#>  8     1 patch     1     8 perim     10
#>  9     1 patch     1     9 perim      4
#> 10     1 patch     2    10 perim     38
#> # ... with 17 more rows
…
Use multiple metric functions

As the result of every function always returns a tibble, combining the metrics that were selected for your research question is straightforward:

# bind results from different metric functions
patch_metrics <- dplyr::bind_rows(
  lsm_p_cai(landscape),
  lsm_p_circle(landscape),
  lsm_p_enn(landscape)
  )
# look at the results
patch_metrics 
#> # A tibble: 81 x 6
#>    layer level class    id metric value
#>    <int> <chr> <int> <int> <chr>  <dbl>
#>  1     1 patch     1     1 cai      0  
#>  2     1 patch     1     2 cai     20  
#>  3     1 patch     1     3 cai     48.6
#>  4     1 patch     1     4 cai      0  
#>  5     1 patch     1     5 cai      0  
#>  6     1 patch     1     6 cai     14.3
#>  7     1 patch     1     7 cai      0  
#>  8     1 patch     1     8 cai      0  
#>  9     1 patch     1     9 cai      0  
#> 10     1 patch     2    10 cai     42.9
#> # ... with 71 more rows
…
