Get Started with landscapemetrics • landscapemetrics | Landscape Metrics for Categorical Map Patterns
…
Using landscapemetrics in a tidy workflow

Use multiple metric functions

We think that it is in general not advisable to use lsm_calculate in a research analysis, since you can’t use that many correlated metrics in a meaningful blabla.

# bind results from different metric functions
patch_metrics <-  dplyr::bind_rows(
  lsm_p_cai(landscape),
  lsm_p_circle(landscape),
  lsm_p_enn(landscape)
  )

patch_metrics
#> # A tibble: 81 x 6
#>    layer level class    id metric          value
#>    <int> <chr> <int> <int> <chr>           <dbl>
#>  1     1 patch     1     1 core area index   0  
#>  2     1 patch     1     2 core area index  20  
#>  3     1 patch     1     3 core area index  48.6
#>  4     1 patch     1     4 core area index   0  
#>  5     1 patch     1     5 core area index   0  
#>  6     1 patch     1     6 core area index  14.3
#>  7     1 patch     1     7 core area index   0  
#>  8     1 patch     1     8 core area index   0  
#>  9     1 patch     1     9 core area index   0  
#> 10     1 patch     2    10 core area index  42.9
#> # ... with 71 more rows
…
