extract_lsm — extract_lsm • landscapemetrics | Landscape Metrics for Categorical Map Patterns
…
lsm_l_enn_mn,
lsm_l_enn_sd,
lsm_l_enn_cv

    Examples

points <- matrix(c(10, 5, 25, 15, 5, 25), ncol = 2, byrow = TRUE)
extract_lsm(landscape, points)
#> Warning: return_raster = TRUE not able for matrix input
#> Warning: return_raster = TRUE not able for matrix input
#> Warning: return_raster = TRUE not able for matrix input
#> Warning: return_raster = TRUE not able for matrix input
#> Warning: return_raster = TRUE not able for matrix input
#> Warning: return_raster = TRUE not able for matrix input
#> # A tibble: 36 x 7
#>    layer level class    id metric   value extract_id
#>    <chr> <chr> <int> <dbl> <chr>    <dbl>      <int>
#>  1 1     patch     3    25 area    0.0457          1
#>  2 1     patch     3    25 cai    57.5             1
#>  3 1     patch     3    25 circle  0.631           1
#>  4 1     patch     3    25 contig  0.785           1
#>  5 1     patch     3    25 core    0.0263          1
#>  6 1     patch     3    25 enn     2               1
#>  7 1     patch     3    25 frac    1.46            1
#>  8 1     patch     3    25 gyrate 11.2             1
#>  9 1     patch     3    25 ncore  11               1
#> 10 1     patch     3    25 para    0.761           1
#> # ... with 26 more rows
…
