Get started • landscapemetrics
…
Using landscapemetrics

If you are sure that your landscape is suitable for the calculation
of landscape metrics, landscapemetrics makes this quite
easy:

# import raster
# for local file: rast("pathtoyourraster/raster.asc")
# ... or any other raster file type, geotiff, ...

# Calculate e.g. perimeter of all patches
lsm_p_perim(landscape)
#> # A tibble: 28 × 6
#>    layer level class    id metric value
#>    <int> <chr> <int> <int> <chr>  <dbl>
#>  1     1 patch     1     1 perim      4
#>  2     1 patch     1     2 perim     12
#>  3     1 patch     1     3 perim     60
#>  4     1 patch     1     4 perim      4
#>  5     1 patch     1     5 perim      4
#>  6     1 patch     1     6 perim     68
#>  7     1 patch     1     7 perim     22
#>  8     1 patch     1     8 perim     10
#>  9     1 patch     1     9 perim     10
#> 10     1 patch     2    10 perim     38
#> # ℹ 18 more rows
…
# show results
subsample_patches
#>  [1] 10 11 12 13 14 15 16 17 18 19 20 21 22

Use multiple metric functions

To list all available metrics, just use the list_lsm()
function. Here, you can specify, for example, a level or type of
metrics.

# list all available metrics
list_lsm()
#> # A tibble: 133 × 5
#>    metric name                                type           level function_name
#>    <chr>  <chr>                               <chr>          <chr> <chr>        
#>  1 area   patch area                          area and edge… patch lsm_p_area   
#>  2 cai    core area index                     core area met… patch lsm_p_cai    
#>  3 circle related circumscribing circle       shape metric   patch lsm_p_circle 
#>  4 contig contiguity index                    shape metric   patch lsm_p_contig 
#>  5 core   core area                           core area met… patch lsm_p_core   
#>  6 enn    euclidean nearest neighbor distance aggregation m… patch lsm_p_enn    
#>  7 frac   fractal dimension index             shape metric   patch lsm_p_frac   
#>  8 gyrate radius of gyration                  area and edge… patch lsm_p_gyrate 
#>  9 ncore  number of core areas                core area met… patch lsm_p_ncore  
#> 10 para   perimeter-area ratio                shape metric   patch lsm_p_para   
#> # ℹ 123 more rows
…
Every function returns a tibble, thus combining the
metrics that were selected for your research question is
straightforward:

# bind results from different metric functions
patch_metrics <- dplyr::bind_rows(
  lsm_p_cai(landscape),
  lsm_p_circle(landscape),
  lsm_p_enn(landscape)
)

# look at the results
patch_metrics 
#> # A tibble: 84 × 6
#>    layer level class    id metric value
#>    <int> <chr> <int> <int> <chr>  <dbl>
#>  1     1 patch     1     1 cai      0  
#>  2     1 patch     1     2 cai      0  
#>  3     1 patch     1     3 cai     48.6
#>  4     1 patch     1     4 cai      0  
#>  5     1 patch     1     5 cai      0  
#>  6     1 patch     1     6 cai     47.5
#>  7     1 patch     1     7 cai     18.7
#>  8     1 patch     1     8 cai      0  
#>  9     1 patch     1     9 cai      0  
#> 10     1 patch     2    10 cai     26.5
#> # ℹ 74 more rows
…
# bind results from different metric functions
patch_metrics <- dplyr::bind_rows(
  lsm_p_cai(landscape),
  lsm_p_circle(landscape),
  lsm_p_enn(landscape)
  )
# look at the results
patch_metrics_full_names <- dplyr::left_join(x = patch_metrics,
                                             y = lsm_abbreviations_names, 
                                             by = "metric")
patch_metrics_full_names
#> # A tibble: 84 × 10
#>    layer level.x class    id metric value name       type  level.y function_name
#>    <int> <chr>   <int> <int> <chr>  <dbl> <chr>      <chr> <chr>   <chr>        
#>  1     1 patch       1     1 cai      0   core area… core… patch   lsm_p_cai    
#>  2     1 patch       1     2 cai      0   core area… core… patch   lsm_p_cai    
#>  3     1 patch       1     3 cai     48.6 core area… core… patch   lsm_p_cai    
#>  4     1 patch       1     4 cai      0   core area… core… patch   lsm_p_cai    
#>  5     1 patch       1     5 cai      0   core area… core… patch   lsm_p_cai    
#>  6     1 patch       1     6 cai     47.5 core area… core… patch   lsm_p_cai    
#>  7     1 patch       1     7 cai     18.7 core area… core… patch   lsm_p_cai    
#>  8     1 patch       1     8 cai      0   core area… core… patch   lsm_p_cai    
#>  9     1 patch       1     9 cai      0   core area… core… patch   lsm_p_cai    
#> 10     1 patch       2    10 cai     26.5 core area… core… patch   lsm_p_cai    
#> # ℹ 74 more rows
…
# calculate all aggregation metrics on patch and landscape level
calculate_lsm(landscape, 
              type = "aggregation metric", 
              level = c("patch", "landscape"))
#> Warning: Please use 'check_landscape()' to ensure the input data is valid.
#> # A tibble: 42 × 6
#>    layer level     class    id metric      value
#>    <int> <chr>     <int> <int> <chr>       <dbl>
#>  1     1 landscape    NA    NA ai       82.5    
#>  2     1 landscape    NA    NA cohesion 90.6    
#>  3     1 landscape    NA    NA contag   26.3    
#>  4     1 landscape    NA    NA division  0.896  
#>  5     1 landscape    NA    NA enn_cv   42.8    
#>  6     1 landscape    NA    NA enn_mn    3.42   
#>  7     1 landscape    NA    NA enn_sd    1.46   
#>  8     1 landscape    NA    NA iji      89.8    
#>  9     1 landscape    NA    NA lsi       3.83   
#> 10     1 landscape    NA    NA mesh      0.00938
#> # ℹ 32 more rows
…
