Get Started with landscapemetrics • landscapemetrics | Landscape Metrics for Categorical Map Patterns
…
Your raster encodes landscape classes as integers (1, 2, 3, 4, …, n).

Landscape metrics describe categorical landscapes, that means that your landscape needs to be classified (we throw a warning if you have more than 30 classes to make sure you work with a classified landscape).

Using landscapemetrics

If you are sure that your landscape is suitable for the calculation of landscape metrics, landscapemetrics makes this quite easy:

# import raster
# for local file: raster("pathtoyourraster/raster.asc")
# ... or any other raster file type, geotiff, ...

# Calculate e.g. perimeter of all patches
lsm_p_perim(landscape)
#> # A tibble: 27 × 6
#>    layer level class    id metric value
#>    <int> <chr> <int> <int> <chr>  <dbl>
#>  1     1 patch     1     1 perim      4
#>  2     1 patch     1     2 perim     12
#>  3     1 patch     1     3 perim    130
#>  4     1 patch     1     4 perim      4
#>  5     1 patch     1     5 perim      4
#>  6     1 patch     1     6 perim     20
#>  7     1 patch     1     7 perim      8
#>  8     1 patch     1     8 perim     10
#>  9     1 patch     1     9 perim      4
#> 10     1 patch     2    10 perim     38
#> # … with 17 more rows
…
# show results
subsample_patches
#>  [1] 10 11 12 14 16 17 18 19 20 22 23

Use multiple metric functions

To list all available metrics, just use the list_lsm() function. Here, you can specify e.g. a level or type of metrics.

# list all available metrics
list_lsm()
#> # A tibble: 133 × 5
#>    metric name                                type                 level function_name
#>    <chr>  <chr>                               <chr>                <chr> <chr>        
#>  1 area   patch area                          area and edge metric patch lsm_p_area   
#>  2 cai    core area index                     core area metric     patch lsm_p_cai    
#>  3 circle related circumscribing circle       shape metric         patch lsm_p_circle 
#>  4 contig contiguity index                    shape metric         patch lsm_p_contig 
#>  5 core   core area                           core area metric     patch lsm_p_core   
#>  6 enn    euclidean nearest neighbor distance aggregation metric   patch lsm_p_enn    
#>  7 frac   fractal dimension index             shape metric         patch lsm_p_frac   
#>  8 gyrate radius of gyration                  area and edge metric patch lsm_p_gyrate 
#>  9 ncore  number of core areas                core area metric     patch lsm_p_ncore  
#> 10 para   perimeter-area ratio                shape metric         patch lsm_p_para   
#> # … with 123 more rows
…
As the result of every function always returns a tibble, combining the metrics that were selected for your research question is straightforward:

# bind results from different metric functions
patch_metrics <- dplyr::bind_rows(
  lsm_p_cai(landscape),
  lsm_p_circle(landscape),
  lsm_p_enn(landscape)
)

# look at the results
patch_metrics 
#> # A tibble: 81 × 6
#>    layer level class    id metric value
#>    <int> <chr> <int> <int> <chr>  <dbl>
#>  1     1 patch     1     1 cai      0  
#>  2     1 patch     1     2 cai      0  
#>  3     1 patch     1     3 cai     48.0
#>  4     1 patch     1     4 cai      0  
#>  5     1 patch     1     5 cai      0  
#>  6     1 patch     1     6 cai     14.3
#>  7     1 patch     1     7 cai      0  
#>  8     1 patch     1     8 cai      0  
#>  9     1 patch     1     9 cai      0  
#> 10     1 patch     2    10 cai     31.4
#> # … with 71 more rows

All metrics are abbreviated in the result tibble. Therefore, we provide a tibble containing the full metric names, as well as the class of each metric (lsm_abbreviations_names). Using e.g. the left_join() function of the dplyr package one could join a result tibble and the abbrevations tibble.

# bind results from different metric functions
patch_metrics <- dplyr::bind_rows(
  lsm_p_cai(landscape),
  lsm_p_circle(landscape),
  lsm_p_enn(landscape)
  )
# look at the results
patch_metrics_full_names <- dplyr::left_join(x = patch_metrics,
                                             y = lsm_abbreviations_names, 
                                             by = "metric")
patch_metrics_full_names
#> # A tibble: 81 × 10
#>    layer level.x class    id metric value name            type  level.y function_name
#>    <int> <chr>   <int> <int> <chr>  <dbl> <chr>           <chr> <chr>   <chr>        
#>  1     1 patch       1     1 cai      0   core area index core… patch   lsm_p_cai    
#>  2     1 patch       1     2 cai      0   core area index core… patch   lsm_p_cai    
#>  3     1 patch       1     3 cai     48.0 core area index core… patch   lsm_p_cai    
#>  4     1 patch       1     4 cai      0   core area index core… patch   lsm_p_cai    
#>  5     1 patch       1     5 cai      0   core area index core… patch   lsm_p_cai    
#>  6     1 patch       1     6 cai     14.3 core area index core… patch   lsm_p_cai    
#>  7     1 patch       1     7 cai      0   core area index core… patch   lsm_p_cai    
#>  8     1 patch       1     8 cai      0   core area index core… patch   lsm_p_cai    
#>  9     1 patch       1     9 cai      0   core area index core… patch   lsm_p_cai    
#> 10     1 patch       2    10 cai     31.4 core area index core… patch   lsm_p_cai    
#> # … with 71 more rows
…
# calculate all aggregation metrics on patch and landscape level
calculate_lsm(landscape, 
              type = "aggregation metric", 
              level = c("patch", "landscape"))
#> Warning: Please use 'check_landscape()' to ensure the input data is valid.
#> # A tibble: 41 × 6
#>    layer level     class    id metric     value
#>    <int> <chr>     <int> <int> <chr>      <dbl>
#>  1     1 landscape    NA    NA ai       81.1   
#>  2     1 landscape    NA    NA cohesion 95.4   
#>  3     1 landscape    NA    NA contag   25.2   
#>  4     1 landscape    NA    NA division  0.696 
#>  5     1 landscape    NA    NA enn_cv   39.8   
#>  6     1 landscape    NA    NA enn_mn    3.18  
#>  7     1 landscape    NA    NA enn_sd    1.27  
#>  8     1 landscape    NA    NA iji      87.8   
#>  9     1 landscape    NA    NA lsi       4.03  
#> 10     1 landscape    NA    NA mesh      0.0273
#> # … with 31 more rows
…
