Calculating landscape metrics for irregular areas • landscapemetrics
…
On the other hand, we can also calculate landscape metrics for
irregular polygons using the sample_lsm() function:

# calculate lsm for irregular polygons ------------------------------------
irr_landscapes = sample_lsm(augusta_nlcd, irregular_areas,
                            what = c("lsm_l_ent", "lsm_l_condent",
                                     "lsm_l_mutinf", "lsm_l_joinent", 
                                     "lsm_l_relmutinf"))

irr_landscapes

## # A tibble: 135 × 8
##    layer level     class    id metric    value plot_id percentage_inside
##    <int> <chr>     <int> <int> <chr>     <dbl>   <int>             <dbl>
##  1     1 landscape    NA    NA condent   1.17        1              102.
##  2     1 landscape    NA    NA ent       1.93        1              102.
##  3     1 landscape    NA    NA joinent   3.10        1              102.
##  4     1 landscape    NA    NA mutinf    0.757       1              102.
##  5     1 landscape    NA    NA relmutinf 0.393       1              102.
##  6     1 landscape    NA    NA condent   1.19        2              105.
##  7     1 landscape    NA    NA ent       2.18        2              105.
##  8     1 landscape    NA    NA joinent   3.37        2              105.
##  9     1 landscape    NA    NA mutinf    0.984       2              105.
## 10     1 landscape    NA    NA relmutinf 0.452       2              105.
## # ℹ 125 more rows
…
