Landscape distribution statistics • landscapemetrics
…
# calculate standard deviation of shape index on landscape level
sd_shape_l <- lsm_l_shape_sd(landscape)

Area-weighted mean

First, we want to calculate the metric of interest on the patch
level. Additionally, we want the patch area of each patch.

# calculate required metric for each patch (e.g. lsm_p_shape)
metric_patch <- lsm_p_shape(landscape)
metric_patch

## # A tibble: 28 × 6
##    layer level class    id metric value
##    <int> <chr> <int> <int> <chr>  <dbl>
##  1     1 patch     1     1 shape   1   
##  2     1 patch     1     2 shape   1.34
##  3     1 patch     1     3 shape   1.77
##  4     1 patch     1     4 shape   1   
##  5     1 patch     1     5 shape   1   
##  6     1 patch     1     6 shape   1.90
##  7     1 patch     1     7 shape   1.38
##  8     1 patch     1     8 shape   1.44
##  9     1 patch     1     9 shape   1.12
## 10     1 patch     2    10 shape   1.63
## # ℹ 18 more rows

# calculate area for each patch
area_patch <- lsm_p_area(landscape)
area_patch

## # A tibble: 28 × 6
##    layer level class    id metric  value
##    <int> <chr> <int> <int> <chr>   <dbl>
##  1     1 patch     1     1 area   0.0001
##  2     1 patch     1     2 area   0.0005
##  3     1 patch     1     3 area   0.0072
##  4     1 patch     1     4 area   0.0001
##  5     1 patch     1     5 area   0.0001
##  6     1 patch     1     6 area   0.008 
##  7     1 patch     1     7 area   0.0016
##  8     1 patch     1     8 area   0.0003
##  9     1 patch     1     9 area   0.0005
## 10     1 patch     2    10 area   0.0034
## # ℹ 18 more rows
…
